sim/tut3_pymtl/regincr/regincr-sim.vcd
$date
    Sat Sep 19 15:51:11 2020
$end
$version
    PyMTL ?.??
$end
$timescale
    10ps
$end

$scope module top $end
$var reg 8 ! in_ $end
$var reg 1 " reset $end
$var reg 1 # clk $end
$var reg 8 $ out $end
$var reg 8 % reg_out $end
$upscope $end
$enddefinitions $end

b0b00000000 !
b0b0 "
b0b0 #
b0b00000000 $
b0b00000000 %
b0b1 "

b0b00000001 $

#50
b0b1 #

#100
b0b0 #

#150
b0b1 #

b0b0 "

b0b00010010 !

#200
b0b0 #

#250
b0b1 #

b0b00010010 %

b0b00010011 $

b0b00000011 !

#300
b0b0 #

#350
b0b1 #

b0b00000011 %

b0b00000100 $

b0b00001011 !

#400
b0b0 #

#450
b0b1 #

b0b00001011 %

b0b00001100 $

b0b11110001 !

#500
b0b0 #

#550
b0b1 #

b0b11110001 %

b0b11110010 $

b0b11010000 !

#600
b0b0 #

#650
b0b1 #

b0b11010000 %

b0b11010001 $

b0b00000000 !

#700
b0b0 #

#750
b0b1 #

b0b00000000 %

b0b00000001 $

#800
b0b0 #

#850
b0b1 #

#900
b0b0 #

#950
b0b1 #

